,precision,recall,f1-score,support
brazilian,0.905982905982906,0.7571428571428571,0.8249027237354086,140.0
chinese,0.8619883040935673,0.9189526184538653,0.8895594447797224,802.0
japanese,0.8868894601542416,0.8079625292740047,0.8455882352941176,427.0
thai,0.8702127659574468,0.8852813852813853,0.8776824034334764,462.0
accuracy,0.872200983069361,0.872200983069361,0.872200983069361,0.872200983069361
macro avg,0.8812683590470404,0.8423348475380281,0.8594332018106813,1831.0
weighted avg,0.8732344751932548,0.872200983069361,0.8713645564681315,1831.0
